…
# compute mean counts across weeks
seasonal_avg <- all_data %>%
  filter(!is.na(season_calc)) %>%
  group_by(season_calc, site_code, site_name, longitude, latitude, species, disease_week) %>%
  summarise(weekly_count = sum(count, na.rm = TRUE), .groups = "drop") %>%
  group_by(season_calc, site_code, site_name, longitude, latitude, species) %>%
  summarise(mean_count = mean(weekly_count, na.rm = TRUE), .groups = "drop")

seasonal_avg
```

    ## # A tibble: 333 × 7
    ##    season_calc site_code site_name         longitude latitude species mean_count
    ##    <chr>           <int> <chr>                 <dbl>    <dbl> <chr>        <dbl>
    ##  1 early               1 RAC Soccer            -112.     40.8 Culex …       5.88
    ##  2 early               1 RAC Soccer            -112.     40.8 Culex …      93   
    ##  3 early               3 Hinckley              -112.     40.8 Culex …      10   
    ##  4 early               3 Hinckley              -112.     40.8 Culex …     160.  
    ##  5 early               4 Rudy                  -112.     40.8 Culex …       6.25
    ##  6 early               4 Rudy                  -112.     40.8 Culex …      83.4 
    ##  7 early               5 Amelia Earhart (…     -112.     40.8 Culex …       6   
    ##  8 early               5 Amelia Earhart (…     -112.     40.8 Culex …      49.7 
    ##  9 early               9 Drechsel              -112.     40.8 Culex …       2.5 
    ## 10 early               9 Drechsel              -112.     40.8 Culex …     151.  
    ## # ℹ 323 more rows
…
